{
    "$schema": "https://themost-framework.github.io/themost/models/2018/2/schema.json",
    "@id": "http://schema.org/DeleteProgramAction",
    "name": "DeleteProgramAction",
    "title": "DeleteProgramAction",
    "abstract": false,
    "sealed": false,
    "inherits": "Action",
    "version": "1.0",
    "fields": [
        {
            "name": "studyProgram",
            "@id": "https://universis.io/schemas/studyProgram",
            "title": "Program of study",
            "description": "A curriculum of two or more courses that is intended or understood to lead to a degree, diploma, or certificate.",
            "type": "StudyProgram",
            "editable": false,
            "nullable": false
        }
    ],
    "eventListeners": [
        {
            "type": "@themost/data/previous-state-listener"
        },
        {
            "type": "./listeners/auto-complete-update-specialty-action-listener"
        },
        {
            "type": "./listeners/after-complete-delete-program-action-listener"
        }
    ],
    "privileges": [
        {
            "mask": 15,
            "type": "global"
        },
        {
            "mask": 15,
            "type": "global",
            "account": "Administrators"
        }
    ]
}
