{
  "$schema": "https://themost-framework.github.io/themost/models/2018/2/schema.json",
  "@id": "https://universis.io/schemas/GradeScale",
  "name": "GradeScale",
  "title": "Κλίμακα βαθμολογίας",
  "hidden": false,
  "sealed": false,
  "version": "1.1",
  "source": "GradeScaleBase",
  "view": "GradeScaleBase",
  "category": "lookup",
  "fields": [
    {
      "name": "id",
      "title": "Μοναδικός κωδικός",
      "description": "Ο μοναδικός κωδικός της κλίμακας",
      "type": "Integer",
      "nullable": false,
      "primary": true,
      "value": "javascript:return this.newid()"
    },
    {
      "name": "name",
      "title": "Ονομασία",
      "description": "Η ονομασία του στοιχείου",
      "type": "Text",
      "nullable": false,
      "size": 20
    },
    {
      "name": "scaleType",
      "title": "Τύπος κλίμακας",
      "description": "Ο τύπος της κλίμακας πχ. 0=Αριθμητική, 3=Κλίμακα τιμών κτλ",
      "type": "Integer",
      "nullable": false
    },
    {
      "name": "scaleFactor",
      "title": "Παράγοντας κλίμακας",
      "description": "Ο παράγοντας της κλίμακας κατά την μετατροπή μίας τιμής",
      "type": "Number",
      "nullable": false
    },
    {
      "name": "scaleBase",
      "title": "Βάση κλίμακας",
      "description": "Η βάση της κλίμακας",
      "type": "Number",
      "nullable": false
    },
    {
      "name": "formatPrecision",
      "title": "Δεκαδικά μορφοποίησης",
      "description": "Ο αριθμός των δεκαδικών ψηφίων κατά την μορφοποίηση μίας τιμής",
      "type": "Number",
      "value": "javascript:return 2;"
    },
    {
      "name": "scalePrecision",
      "title": "Δεκαδικά μετατροπής",
      "description": "Ο αριθμός των δεκαδικών ψηφίων κατά την μετατροπή μίας τιμής",
      "type": "Number",
      "value": "javascript:return 4;"
    },
    {
      "name": "step",
      "title": "Βήμα",
      "description": "Βήμα πχ 0,5",
      "type": "Number"
    },
    {
      "name": "values",
      "title": "Τιμές Κλίμακας",
      "description": "Μία συλλογή τιμών για την κλίμακα (αναφέρεται σε μη αριθμητικές κλίμακες)",
      "type": "GradeScaleValue",
      "nested": true,
      "expandable": true,
      "mapping": {
        "parentModel": "GradeScale",
        "childModel": "GradeScaleValue",
        "parentField": "id",
        "childField": "gradeScale",
        "associationType": "association"
      }
    },
    {
      "name": "locales",
      "type": "GradeScaleLocale",
      "mapping": {
        "associationType": "association",
        "cascade": "delete",
        "parentModel": "GradeScale",
        "parentField": "id",
        "childModel": "GradeScaleLocale",
        "childField": "object"
      }
    },
    {
      "name": "locale",
      "type": "GradeScaleLocale",
      "readonly": true,
      "editable": false,
      "many": true,
      "expandable": true,
      "multiplicity": "ZeroOrOne",
      "mapping": {
        "associationType": "association",
        "cascade": "delete",
        "parentModel": "GradeScale",
        "parentField": "id",
        "childModel": "GradeScaleLocale",
        "childField": "object",
        "options": {
          "$filter": "inLanguage eq lang()",
          "$first": true
        }
      }
    }
  ],
  "privileges": [
    {
      "mask": 1,
      "type": "global",
      "account": "*"
    },
    {
      "mask": 15,
      "type": "global"
    },
    {
      "mask": 15,
      "type": "global",
      "account": "Administrators"
    }
  ],
  "eventListeners": [
    {
      "type": "./listeners/data-localization"
    }
  ]
}
