{
    "$schema": "https://themost-framework.github.io/themost/models/2018/2/schema.json",
    "@id": "https://themost.io/schemas/MessageAttachments",
    "name": "MessageAttachments",
    "title": "Message Attachments",
    "source": "MessageAttachments",
    "view": "MessageAttachments",
    "version": "1.0",
    "hidden": true,
    "fields": [
        {
            "name": "id",
            "type": "Counter",
            "primary": true
        },
        {
            "name": "parentId",
            "indexed": true,
            "nullable": false,
            "type": "Message"
        },
        {
            "name": "valueId",
            "indexed": true,
            "nullable": false,
            "type": "Attachment"
        }
    ],
    "constraints": [
        {
            "type": "unique",
            "fields": [
                "parentId",
                "valueId"
            ]
        }
    ],

    "privileges": [
        {
            "mask": 15,
            "type": "global"
        },
        {
            "mask": 15,
            "type": "global",
            "account": "Administrators"
        },
        {
            "mask": 15,
            "type": "global",
            "account": "Registrar"
        },
        {
            "mask": 3,
            "type": "self",
            "filter": "parentId/owner eq me() or parentId/recipient eq me()",
            "account": "Students"
        }

    ]
}
