{
  "$schema": "https://themost-framework.github.io/themost/models/2018/2/schema.json",
  "@id": "https://universis.io/entities/ProgramGroupLocale",
  "name": "ProgramGroupLocale",
  "description": "Contains a collection of extra field required for programGroup.",
  "title": "ProgramGroupLocale",
  "abstract": false,
  "contains": "ProgramGroup",
  "hidden": true,
  "sealed": false,
  "version": "1.0",
  "fields": [
    {
      "@id": "https://themost.io/schemas/id",
      "name": "id",
      "title": "ID",
      "description": "The identifier of the item.",
      "type": "Counter",
      "primary": true,
      "nullable": false
    },
    {
      "@id": "https://themost.io/schemas/object",
      "name": "object",
      "title": "object",
      "description": "The parent item.",
      "type": "ProgramGroup"
    },
    {
      "@id": "http://schema.org/inLanguage",
      "name": "inLanguage",
      "title": "inLanguage",
      "description": "The language of this item.",
      "type": "Text",
      "size": 5
    },
    {
      "name": "displayCode",
      "title": "Κωδικός εμφάνισης",
      "description": "Κωδικός εμφάνισης",
      "type": "Text",
      "nullable": true,
      "size": 15
    },
    {
      "name": "name",
      "title": "Ονομασία ομάδας",
      "description": "Ονομασία ομάδας",
      "type": "Text",
      "nullable": true,
      "size": 150
    },
    {
      "name": "description",
      "title": "Περιγραφή",
      "description": "Περιγραφή",
      "type": "Text",
      "nullable": true,
      "size": 150
    }
  ],
  "constraints": [
    {
      "type": "unique",
      "fields": [
        "object", "inLanguage"
      ]
    }
  ],
  "privileges": [
    {
      "mask": 1,
      "type": "global",
      "account": "*"
    },
    {
      "mask": 15,
      "type": "global"
    },
    {
      "mask": 15,
      "type": "global",
      "account": "Administrators"
    },
    {
      "mask": 15,
      "type": "self",
      "account": "Registrar",
      "filter": "object/program/department eq departments()"
    }
  ]
}
