{
  "$schema": "https://themost-framework.github.io/themost/models/2018/2/schema.json",
  "@id": "https://universis.io/schemas/RegisteredCourseRuleEx",
  "name": "RegisteredCourseRuleEx",
  "type": "memory",
  "title": "Registered course rules expanded",
  "hidden": true,
  "sealed": false,
  "version": "0.1",
  "fields": [
    {
      "name": "id",
      "title": "Id",
      "description": "Id",
      "type": "Integer",
      "nullable": false,
      "primary": true
    },
    {
      "name": "target",
      "title": "The target object",
      "description": "The target object",
      "type": "Text",
      "nullable": false
    },
    {
      "name": "targetType",
      "title": "Target type",
      "description": "The type of the target object",
      "type": "Text",
      "nullable": false
    },
    {
      "name": "refersTo",
      "title": "Refers to model",
      "description": "Refers to model",
      "type": "Text",
      "nullable": false
    },
    {
      "name": "additionalType",
      "title": "The rule additional type",
      "description": "The rule additional type",
      "type": "Text",
      "nullable": false
    },
    {
      "name": "checkValues",
      "property": "courses",
      "type": "Course",
      "many": true,
      "mapping": {
        "parentModel": "RegisteredCourseRuleEx",
        "parentField": "id",
        "childModel": "Course",
        "childField": "id",
        "associationType": "junction"
      }
    },
    {
      "name": "value6",
      "property": "checkType",
      "title": "Check type",
      "description": "The registered course check type",
      "type": "RuleCheckType",
      "mapping": {
        "parentModel": "RuleCheckType",
        "parentField": "identifier",
        "childModel": "RegisteredCourseRuleEx",
        "childField": "id",
        "associationType": "association"
      }
    },
    {
      "name": "value4",
      "property": "totalCourses"
    },
    {
      "name": "ruleExpression",
      "title": "The rule expression",
      "description": "The rule expression",
      "type": "Text"
    },
    {
      "name": "programSpecialty",
      "title": "The rule for specific program specialty",
      "description": "The rule program specialty",
      "type": "Integer"
    }
  ],
  "privileges": [
    {
      "mask": 1,
      "type": "global",
      "account": "*"
    },
    {
      "mask": 15,
      "type": "global"
    }
  ]
}
