{
  "$schema": "https://themost-framework.github.io/themost/models/2018/2/schema.json",
  "@id": "https://universis.io/schemas/ReportVariableType",
  "name": "ReportVariableType",
  "type": "lookup",
  "title": "ReportVariableTypes",
  "hidden": false,
  "sealed": false,
  "abstract": false,
  "implements": "Enumeration",
  "version": "1.3",
  "fields": [
    {
      "name": "id",
      "title": "Id",
      "type": "Counter",
      "nullable": false,
      "primary": true
    },
    {
      "@id": "https://universis.io/typeString",
      "name": "typeString",
      "title": "Variable type",
      "description": "A string which defines the variable type (a variable type is a multi-valued item)",
      "type": "Text",
      "nullable": false
    }
  ],
  "privileges": [
    {
      "mask": 1,
      "type": "global",
      "account": "*"
    },
    {
      "mask": 15,
      "type": "global"
    },
    {
      "mask": 15,
      "type": "global",
      "account": "Administrators"
    }
  ],
  "constraints": [
    {
      "type": "unique",
      "description": "Alternate name must be unique across different records",
      "fields": [
        "alternateName"
      ]
    },
    {
      "type": "unique",
      "description": "Name must be unique across different records",
      "fields": [
        "name"
      ]
    }
  ],
  "seed": [
  ],
  "eventListeners": [
  ]
}
