{
  "$schema": "https://themost-framework.github.io/themost/models/2018/2/schema.json",
  "@id": "https://universis.io/schemas/ThesisRole",
  "name": "ThesisRole",
  "title": "ThesisRoles",
  "hidden": false,
  "sealed": false,
  "inherits": "Role",
  "version": "0.2",
  "fields": [
    {
      "@id": "https://themost.io/schemas/id",
      "name": "id",
      "title": "ID",
      "description": "The identifier of the item.",
      "type": "Counter",
      "primary": true,
      "nullable": false
    },
    {
      "@id": "https://universis.io/schemas/attributes/thesis",
      "name": "thesis",
      "title": "Thesis",
      "type": "Thesis",
      "nullable": false,
      "editable": false
    },
    {
      "name": "index",
      "title": "Αύξων αριθμός εξεταστή",
      "description": "Αύξων αριθμός εξεταστή",
      "type": "Integer",
      "value": "javascript:return 1;"
    },
    {
      "name": "factor",
      "title": "Συντελεστής συμμετοχής",
      "description": "Ο συντελεστής που συμμετέχει στον τελικό βαθμό της εργασίας.",
      "type": "Number",
      "value": "javascript:return 1;"
    },
    {
      "@id": "https://universis.io/schemas/attributes/member",
      "name": "member",
      "title": "Member",
      "type": "Instructor",
      "nullable": false,
      "editable": false
    }
  ],
  "constraints": [
      {
          "type": "unique",
          "fields": [
              "thesis",
              "member"
          ]
      }
  ],
  "eventListeners": [
    {
      "type": "@themost/data/previous-state-listener"
    },
    {
      "type": "./listeners/thesis-role-update-listener"
    }
  ],
  "privileges": [
    {
      "mask": 15,
      "type": "global"
    },
    {
      "mask": 1,
      "type": "self",
      "filter": "member eq instructor()",
      "account": "Instructors"
    },
    {
      "mask": 15,
      "type": "global",
      "account": "Administrators"
    },
    {
      "mask": 15,
      "type": "self",
      "account": "Registrar",
      "filter": "thesis/department eq departments()"
    }
  ]
}
