{
    "name": "UserActivation",
    "id": 4854285,
    "title": "User Activation Data",
    "hidden": true,
    "sealed": false,
    "abstract": false,
    "version": "1.1",
    "fields": [
        {
            "name": "id",
            "title": "Id",
            "description": "The identifier of the item.",
            "type": "User",
            "nullable": false,
            "primary": true
        },
        {
            "name": "name",
            "title": "Name",
            "description": "The name of the item.",
            "type": "Text",
            "nullable": false
        },
        {
            "name": "email",
            "title": "Email Address",
            "description": "The email address of the item",
            "type": "Text",
            "size": 50
        },
        {
            "name": "externalAuthentication",
            "title": "External Authentication",
            "description": "External authentication flag.",
            "type": "Integer"
        },
        {
            "name": "authenticationProvider",
            "title": "Authentication Provider URL",
            "description": "Authentication Provider URL",
            "type": "Text",
            "size": 160
        },
        {
            "name": "activationCode",
            "title": "Activation Code",
            "description": "Activation Code",
            "type": "Text",
            "size": 120
        },
        {
            "name": "useActivationCode",
            "title": "Use Activation Code",
            "description": "Use Activation Code",
            "type": "Integer"
        },
        {
            "name": "providerType",
            "title": "Provider Type",
            "description": "Provider Type",
            "type": "Integer"
        },
        {
            "name": "uniqueIdentifier",
            "title": "User Unique Identifier",
            "description": "User Unique Identifier",
            "type": "Text",
            "size": 255,
            "readonly": true
        }
    ],
    "constraints": [
        {
            "type": "unique",
            "description": "User name must be unique for a specific user account.",
            "fields": [
                "name"
            ]
        }
    ],
    "privileges": [
        {
            "mask": 15,
            "type": "global"
        }
    ],
    "eventListeners": [
        {
            "type": "./listeners/user-activation-sync-listener",
            "name": "Use Activation Sync Listener"
        }
    ]
}
